{"data":[{"id":"post_bfbbf1d4-b00b-4265-8aca-c4f38bbe09e3","title":"La duda fue el producto","subtitle":"Cómo las tabacaleras desarrollaron una estrategia que hoy usan todas las industrias.","authors":["Margen de error"],"created":1778358632,"status":"confirmed","publish_date":1778507258,"displayed_date":null,"split_tested":false,"subject_line":"La duda fue el producto","preview_text":"","slug":"la-duda-fue-el-producto-c78ff25b79d4b5a7","thumbnail_url":"https://beehiiv-images-production.s3.amazonaws.com/uploads/asset/file/0f93685d-84cd-4c61-87c3-f494d3f152a9/ChatGPT_Image_11_may_2026__10_15_20_a.m..png?t=1778506422","web_url":"https://archivo.mde.uy/p/la-duda-fue-el-producto-c78ff25b79d4b5a7","audience":"free","platform":"both","content_tags":[],"meta_default_description":null,"meta_default_title":null,"hidden_from_feed":false,"enforce_gated_content":false,"email_capture_popup":false,"newsletter_list_id":null},{"id":"post_226a91e5-a485-4bf3-b520-c2608b288fc6","title":"La asimetría de la evidencia","subtitle":"Un estudio enorme apuntó en dirección contraria a las recomendaciones dietéticas vigentes. Lo que pasó después dice tanto como los datos.","authors":["Margen de error"],"created":1779191107,"status":"confirmed","publish_date":1779212044,"displayed_date":null,"split_tested":false,"subject_line":"La asimetría de la evidencia","preview_text":"Un estudio enorme apuntó en dirección contraria a las recomendaciones dietéticas vigentes. Lo que pasó después dice tanto como los datos.","slug":"la-asimetri-a-de-la-evidencia","thumbnail_url":"https://beehiiv-images-production.s3.amazonaws.com/uploads/asset/file/0fec6a0c-f779-4c2b-98a5-b69dbf7d244b/ChatGPT_Image_15_may_2026__06_10_51_p.m..png?t=1779191170","web_url":"https://archivo.mde.uy/p/la-asimetri-a-de-la-evidencia","audience":"free","platform":"both","content_tags":[],"meta_default_description":null,"meta_default_title":"La asimetría de la evidencia","hidden_from_feed":false,"enforce_gated_content":false,"email_capture_popup":false,"newsletter_list_id":null},{"id":"post_1042873a-8455-4586-b7f3-979a4ab469d2","title":"Cuando el diseño es también la conclusión","subtitle":"Cómo el sesgo de confirmación entra al laboratorio antes de que haya un solo dato.","authors":["Margen de error"],"created":1779219572,"status":"confirmed","publish_date":1779470249,"displayed_date":null,"split_tested":false,"subject_line":"Cuando el diseño es también la conclusión","preview_text":"Cómo el sesgo de confirmación entra al laboratorio antes de que haya un solo dato.","slug":"cuando-el-dise-o-es-tambi-n-la-conclusi-n","thumbnail_url":"https://beehiiv-images-production.s3.amazonaws.com/uploads/asset/file/cf6ec983-e8c2-45f4-8321-2c506b18f504/ChatGPT_Image_20_may_2026__11_48_31_a.m..png?t=1779470076","web_url":"https://archivo.mde.uy/p/cuando-el-dise-o-es-tambi-n-la-conclusi-n","audience":"free","platform":"both","content_tags":[],"meta_default_description":"Cómo el sesgo de confirmación entra al laboratorio antes de que haya un solo dato.","meta_default_title":"Cuando el diseño es también la conclusión","hidden_from_feed":false,"enforce_gated_content":false,"email_capture_popup":false,"newsletter_list_id":null}],"page":1,"limit":3,"total_results":4,"total_pages":2}